<?xml version="1.0" encoding="UTF-8" standalone="no"?>
<svg xmlns:rdf="http://www.w3.org/1999/02/22-rdf-syntax-ns#" xmlns="http://www.w3.org/2000/svg" version="1.1" xmlns:cc="http://creativecommons.org/ns#" xmlns:xlink="http://www.w3.org/1999/xlink" viewBox="0 0 24.000364 24.000818" xmlns:dc="http://purl.org/dc/elements/1.1/">
<metadata>
<rdf:RDF>
<cc:Work rdf:about="">
<dc:format>image/svg+xml</dc:format>
<dc:type rdf:resource="http://purl.org/dc/dcmitype/StillImage"/>
</cc:Work>
</rdf:RDF>
</metadata>
<defs>
<linearGradient id="l" y2="209.2774" xlink:href="#b" gradientUnits="userSpaceOnUse" x2="14.01084" gradientTransform="matrix(1.373757 0 0 .715969 -52.92573 45.42126)" y1="203.3658" x1="10.04167"/>
<linearGradient id="m" y2="213.663" xlink:href="#c" gradientUnits="userSpaceOnUse" x2="15.9855" gradientTransform="matrix(.503763 0 0 .600361 -33.82784 47.74752)" y1="219.5232" x1="19.47374"/>
<linearGradient id="f" y2="209.2774" xlink:href="#b" gradientUnits="userSpaceOnUse" x2="14.01084" gradientTransform="matrix(2.114324,0,0,1.002646,-47.33758,-30.1841)" y1="203.3658" x1="10.04167"/>
<linearGradient id="e" y2="214.5512" xlink:href="#a" gradientUnits="userSpaceOnUse" x2="17.15024" gradientTransform="matrix(2.026443,0,0,1.557511,-54.13118,-158.6166)" y1="218.8883" x1="18.50864"/>
<linearGradient id="n" y2="219.0135" xlink:href="#c" gradientUnits="userSpaceOnUse" x2="20.6591" gradientTransform="matrix(.669342 0 0 1.001998 -36.88229 -39.41679)" y1="215.0097" x1="17.62746"/>
<linearGradient id="b">
<stop stop-color="#5a5a5a" offset="0"/>
<stop offset="1"/>
</linearGradient>
<linearGradient id="a">
<stop stop-color="#fff" offset="0"/>
<stop stop-color="#98b6d3" offset="1"/>
</linearGradient>
<linearGradient id="k" y2="214.6554" xlink:href="#a" gradientUnits="userSpaceOnUse" x2="18.82314" gradientTransform="matrix(1.537676,0,0,1.000883,-61.45158,-22.13894)" y1="219.9305" x1="20.21689"/>
<linearGradient id="d" y2="219.4184" xlink:href="#a" gradientUnits="userSpaceOnUse" x2="19.38252" gradientTransform="matrix(1.525151 0 0 .933201 -44.88385 -23.1282)" y1="213.872" x1="15.74156"/>
<linearGradient id="g" y2="217.8234" xlink:href="#a" gradientUnits="userSpaceOnUse" x2="17.31054" gradientTransform="matrix(1.88093,0,0,1.001693,-70.83858,-33.32392)" y1="213.2164" x1="16.04734"/>
<linearGradient id="j" y2="219.6793" xlink:href="#a" gradientUnits="userSpaceOnUse" x2="17.94699" gradientTransform="matrix(1.157292 0 0 .59969 -54.4347 64.92824)" y1="213.872" x1="15.74156"/>
<linearGradient id="h" y2="215.2099" xlink:href="#a" gradientUnits="userSpaceOnUse" x2="17.75236" gradientTransform="matrix(2.499161,0,0,1.671823,-82.24308,-178.7565)" y1="218.9795" x1="18.84686"/>
<linearGradient id="o" y2="218.6017" xlink:href="#b" gradientUnits="userSpaceOnUse" x2="20.61538" gradientTransform="matrix(.751237 0 0 1.001998 -38.40231 -39.41679)" y1="212.6297" x1="13.84434"/>
<linearGradient id="c">
<stop stop-color="#ffbf00" offset="0"/>
<stop stop-color="#fff" offset="1"/>
</linearGradient>
<linearGradient id="i" y2="209.2774" xlink:href="#b" gradientUnits="userSpaceOnUse" x2="14.01084" gradientTransform="matrix(2.125329,0,0,1.002646,-66.82105,-25.5096)" y1="203.3658" x1="10.04167"/>
</defs>
<g transform="matrix(1 0 0 .998006 30.04815 -172.63483)">
<g stroke-linejoin="round" stroke-miterlimit="0" transform="matrix(0 1.001998 .998006 0 -198.7358 218.0576)">
<rect style="color:#000000" height="7.017632" width="16.99984" stroke="url(#i)" y="180.5436" x="-44.48746" stroke-width="1.0009986" fill="none"/>
<rect style="color:#000000" fill-rule="evenodd" height="5.021792" width="14.99677" stroke="url(#g)" stroke-linecap="round" y="181.5373" x="-43.4854" stroke-width="1.0009992" fill="url(#h)"/>
</g>
<g stroke-linejoin="round" stroke-miterlimit="0" transform="matrix(0 .41489230 .85571230 0 -172.04194 193.92305)">
<rect style="color:#000000" height="7.017632" width="16.91182" stroke="url(#f)" y="175.8691" x="-25.11964" stroke-width="1.6799744" fill="none"/>
<rect style="color:#000000" fill-rule="evenodd" height="4.678422" width="12.16012" stroke="url(#d)" stroke-linecap="round" y="177.0416" x="-22.70454" stroke-width="1.6799736" fill="url(#e)"/>
</g>
<rect style="color:#000000" transform="rotate(90)" height="15.9681" width="16.03197" y="6.048015" x="172.9911" fill="none"/>
<g stroke-linejoin="round" stroke-width=".9579424" stroke-miterlimit="0" transform="matrix(0 1.0940976 .998006 0 -220.7255 220.60453)">
<rect style="color:#000000" height="5.011148" width="10.98825" stroke="url(#l)" y="192.5597" x="-38.48989" fill="none"/>
<rect style="color:#000000" fill-rule="evenodd" height="3.006435" width="9.227168" stroke="url(#j)" stroke-linecap="round" y="193.5608" x="-37.60492" fill="url(#k)"/>
</g>
<g stroke-linejoin="round" stroke-miterlimit="0" transform="matrix(0 1.001998 .998006 0 -186.7188 218.063)">
<rect style="color:#000000" height="5.011291" width="6.008899" stroke="url(#o)" y="175.5202" x="-27.50193" stroke-width="1.0009987" fill="none"/>
<rect style="color:#000000" fill-rule="evenodd" height="3.009787" width="4.016531" stroke="url(#m)" stroke-linecap="round" y="176.5235" x="-26.50193" stroke-width="1.0009992" fill="url(#n)"/>
</g>
<path d="m-27.45876 175.5271v23.0451" transform="matrix(0 1.001998 -.998006 0 168.6276 218.0287)" stroke="#c80000" stroke-linecap="square" stroke-width="1.0009989" fill="none"/>
</g>
</svg>
