<?xml version="1.0" encoding="UTF-8" standalone="no"?>
<svg xmlns:rdf="http://www.w3.org/1999/02/22-rdf-syntax-ns#" xmlns="http://www.w3.org/2000/svg" version="1.1" xmlns:cc="http://creativecommons.org/ns#" xmlns:xlink="http://www.w3.org/1999/xlink" viewBox="0 0 24 24" xmlns:dc="http://purl.org/dc/elements/1.1/">
<metadata>
<rdf:RDF>
<cc:Work rdf:about="">
<dc:format>image/svg+xml</dc:format>
<dc:type rdf:resource="http://purl.org/dc/dcmitype/StillImage"/>
</cc:Work>
</rdf:RDF>
</metadata>
<defs>
<linearGradient id="a" y2="211.605" xlink:href="#f" gradientUnits="userSpaceOnUse" x2="18.58443" gradientTransform="matrix(1.209494,0,0,1.382055,-12.2469,758.2004)" y1="205.4478" x1="11.87961"/>
<linearGradient id="d">
<stop stop-color="#fff" offset="0"/>
<stop stop-color="#98b6d3" offset="1"/>
</linearGradient>
<linearGradient id="c" y2="218.8141" xlink:href="#e" gradientUnits="userSpaceOnUse" x2="21.32992" gradientTransform="matrix(1.306645,0,0,2.608597,-18.88425,480.9675)" y1="214.8097" x1="16.3967"/>
<linearGradient id="b" y2="218.8026" xlink:href="#d" gradientUnits="userSpaceOnUse" x2="17.49814" gradientTransform="matrix(.9834125 0 0 1.562975 -12.92154 707.8904)" y1="214.5411" x1="15.64649"/>
<linearGradient id="e">
<stop stop-color="#8ab3df" offset="0"/>
<stop stop-color="#fff" offset="1"/>
</linearGradient>
<linearGradient id="f">
<stop stop-color="#5a5a5a" offset="0"/>
<stop offset="1"/>
</linearGradient>
</defs>
<g transform="translate(-1146 -244)">
<rect opacity="0" height="24" width="24" y="244" x="1146"/>
<g stroke-linejoin="round" stroke-miterlimit="0" transform="matrix(.8490566 0 0 .8490566 1147 -639.5161)">
<rect height="9.673169" width="9.674352" stroke="url(#a)" y="1042.226" x=".462824" stroke-width=".925648" fill="none"/>
<rect fill-rule="evenodd" height="7.835659" width="7.840812" stroke="url(#b)" stroke-linecap="round" y="1043.145" x="1.379594" fill="url(#c)"/>
</g>
<g stroke-linejoin="round" stroke-miterlimit="0" transform="matrix(.8490566 0 0 .8490566 1160 -632.5151)">
<rect height="9.673169" width="9.674352" stroke="url(#a)" y="1042.226" x=".462824" stroke-width=".925648" fill="none"/>
<rect fill-rule="evenodd" height="7.835659" width="7.840812" stroke="url(#b)" stroke-linecap="round" y="1043.145" x="1.379594" fill="url(#c)"/>
</g>
<g fill="#ff0" transform="matrix(-1.214009,0,0,-1.214009,1612.567,906.4111)">
<path fill-rule="evenodd" fill="#000" d="m372.8308 534.9312v0.7h5.0155l1.1646 1v0.8679h-1.2973l1.6268 1.9968 1.6838-1.9968h-1.2953v-1.1346l-1.6827-1.4333h-5.2154z"/>
</g>
<g fill="#ff0" transform="matrix(1.214009,0,0,1.214009,701.8316,-398.1738)">
<path fill-rule="evenodd" fill="#000" d="m373.9715 533.0883v0.7h5.606l1.1646 1v0.8679h-1.2973l1.6268 1.9968 1.6838-1.9968h-1.2953v-1.1346l-1.6827-1.4333h-5.8059z"/>
</g>
<g transform="matrix(.5350629 .5892249 -.5892249 .5350629 686.558 -576.3326)">
<path stroke-linejoin="round" style="color:#000000" d="m1173.915 279.6085c3.028 0 5.485-2.458 5.485-5.4866s-2.457-5.4866-5.485-5.4866" stroke="#c80000" stroke-miterlimit="0" stroke-dasharray="1.5077017, 1.5077017" stroke-width="1.5077016" fill="none"/>
<path fill-rule="evenodd" fill="#c80000" d="m1172.21 279.2058 3.771-3.1433v6.2868l-3.771-3.1435z"/>
<path stroke-linejoin="round" style="color:#000000" d="m1173.102 268.4294c-3.028 0-5.485 2.458-5.485 5.4866s2.457 5.4866 5.485 5.4866" stroke-dashoffset=".3015402" stroke="#c80000" stroke-miterlimit="0" stroke-dasharray="1.5077017, 1.5077017" stroke-width="1.5077016" fill="none"/>
<path fill-rule="evenodd" fill="#c80000" d="m1174.61 268.7807-3.771 3.1434v-6.2867l3.771 3.1433z"/>
</g>
</g>
</svg>
