<?xml version="1.0" encoding="UTF-8" standalone="no"?>
<svg xmlns:rdf="http://www.w3.org/1999/02/22-rdf-syntax-ns#" xmlns="http://www.w3.org/2000/svg" version="1.1" xmlns:cc="http://creativecommons.org/ns#" xmlns:xlink="http://www.w3.org/1999/xlink" viewBox="0 0 16.000001 16.000001" xmlns:dc="http://purl.org/dc/elements/1.1/">
<metadata>
<rdf:RDF>
<cc:Work rdf:about="">
<dc:format>image/svg+xml</dc:format>
<dc:type rdf:resource="http://purl.org/dc/dcmitype/StillImage"/>
</cc:Work>
</rdf:RDF>
</metadata>
<defs>
<linearGradient id="g" y2="266.8492" gradientUnits="userSpaceOnUse" x2="368.4475" gradientTransform="matrix(1.270957,0,0,1.195374,110.6171,-279.6099)" y1="259.1585" x1="359.5376">
<stop stop-color="#e4ffa6" offset="0"/>
<stop stop-color="#3a7801" offset="1"/>
</linearGradient>
<linearGradient id="c" y2="34.17011" xlink:href="#a" gradientUnits="userSpaceOnUse" x2="570.1624" y1="26.23856" x1="566.2487"/>
<linearGradient id="d" y2="28.21831" xlink:href="#a" gradientUnits="userSpaceOnUse" x2="574.5176" y1="22.43135" x1="562.2006"/>
<linearGradient id="b" y2="33.63204" gradientUnits="userSpaceOnUse" x2="576.5" gradientTransform="translate(-6)" y1="28.64459" x1="574.6573">
<stop stop-color="#fff" offset="0"/>
<stop stop-color="#98b6d3" offset="1"/>
</linearGradient>
<linearGradient id="f" y2="28.3706" gradientUnits="userSpaceOnUse" x2="572.5851" y1="26.23856" x1="573.1181">
<stop stop-color="#fffdf8" offset="0"/>
<stop stop-color="#cdccc7" offset="1"/>
</linearGradient>
<linearGradient id="a">
<stop stop-color="#5a5a5a" offset="0"/>
<stop offset="1"/>
</linearGradient>
<linearGradient id="e" y2="38.68793" xlink:href="#a" gradientUnits="userSpaceOnUse" x2="575.8765" y1="24.52513" x1="558.0709"/>
</defs>
<g transform="translate(-565,-25)">
<rect style="color:#000000" fill-opacity="0" transform="translate(180,-5)" height="16" width="16" y="30" x="385" stroke-width=".982277"/>
<path stroke-linejoin="round" style="color:#000000" d="m565.5118 28.50002h13.9764v5.97466 5.97467l-11.9882 0.05065c-1 0-2-1-2-2l0.0118-9.99998z" fill-rule="evenodd" stroke="url(#e)" stroke-linecap="round" stroke-miterlimit="0" stroke-width="1.0000015" fill="url(#g)"/>
<path stroke-linejoin="round" d="m578.5 25.5h-11c-1 0-2.5 1.5-1.5 3h13.5c-1.5-1-1.5-2-1-3z" fill-rule="evenodd" stroke="url(#d)" stroke-linecap="round" stroke-width="1px" fill="url(#f)"/>
<path d="m567.5 30v9" fill-rule="evenodd" stroke="#e2fda4" stroke-linecap="round" stroke-width="1px" fill="#e1ff7d"/>
<path fill-rule="evenodd" fill="#49850a" d="m578 29h1v11h-12v-1h11v-10z"/>
<path d="m568.5 29.5h9" fill-rule="evenodd" stroke="#c0e383" stroke-linecap="round" stroke-width="1px" fill="#e1ff7d"/>
<path fill-rule="evenodd" fill="url(#c)" d="m568 27v10h1v-1h2v1h1v-10h-3v1h2v7h-2v-8h-1z"/>
<path fill-rule="evenodd" fill="url(#b)" d="m569 28v7h2v-7h-2z"/>
</g>
</svg>
