<?xml version="1.0" encoding="UTF-8" standalone="no"?>
<svg xmlns:rdf="http://www.w3.org/1999/02/22-rdf-syntax-ns#" xmlns="http://www.w3.org/2000/svg" version="1.1" xmlns:cc="http://creativecommons.org/ns#" viewBox="0 0 16.058317 16" xmlns:dc="http://purl.org/dc/elements/1.1/">
<metadata>
<rdf:RDF>
<cc:Work rdf:about="">
<dc:format>image/svg+xml</dc:format>
<dc:type rdf:resource="http://purl.org/dc/dcmitype/StillImage"/>
</cc:Work>
</rdf:RDF>
</metadata>
<g transform="translate(45,-175)">
<path stroke-linejoin="round" d="m-44.41296 176.5635c-0.52712 3.4524 1.3869 9.3867 7.3869 9.3867s7.98876-5.9343 7.51588-9.3867" stroke="#646464" stroke-linecap="round" stroke-miterlimit="0" stroke-width="1.0000002" fill="none"/>
<rect style="color:#000000" height="16" width="16" y="175" x="-45" fill="none"/>
<rect stroke-linejoin="round" style="color:#000000" stroke-width="1.0000015" fill-rule="evenodd" fill-opacity=".3921569" transform="rotate(-89.99984)" ry="2.475089" width="4.966394" stroke="#00f" stroke-linecap="round" stroke-miterlimit="0" y="-39.47938" x="-188.4831" height="4.950177" fill="#6464ff"/>
</g>
</svg>
