<?xml version="1.0" encoding="UTF-8" standalone="no"?>
<svg xmlns:rdf="http://www.w3.org/1999/02/22-rdf-syntax-ns#" xmlns="http://www.w3.org/2000/svg" version="1.1" xmlns:cc="http://creativecommons.org/ns#" xmlns:xlink="http://www.w3.org/1999/xlink" viewBox="0 0 16 16" xmlns:dc="http://purl.org/dc/elements/1.1/">
<metadata>
<rdf:RDF>
<cc:Work rdf:about="">
<dc:format>image/svg+xml</dc:format>
<dc:type rdf:resource="http://purl.org/dc/dcmitype/StillImage"/>
</cc:Work>
</rdf:RDF>
</metadata>
<defs>
<linearGradient id="a" y2="3" gradientUnits="userSpaceOnUse" x2="3" y1="12" x1="12">
<stop offset="0"/>
<stop stop-opacity="0" offset="1"/>
</linearGradient>
</defs>
<g fill="none">
<path stroke="url(#a)" d="m15 6.5c-3 2.5-7 0.5-11-4.5"/>
<path stroke="url(#a)" d="m6.5 15c2.5-3 0.5-7-4.5-11"/>
<path stroke="blue" d="m2 13c1-5 6-10 11-11"/>
<circle stroke="blue" cy="14" cx="2" r="1"/>
<circle stroke="blue" cy="2" cx="14" r="1"/>
</g>
</svg>
