<?xml version="1.0" encoding="UTF-8" standalone="no"?>
<svg xmlns:rdf="http://www.w3.org/1999/02/22-rdf-syntax-ns#" xmlns="http://www.w3.org/2000/svg" version="1.1" xmlns:cc="http://creativecommons.org/ns#" viewBox="0 0 15.903875 16.000704" xmlns:dc="http://purl.org/dc/elements/1.1/">
<metadata>
<rdf:RDF>
<cc:Work rdf:about="">
<dc:format>image/svg+xml</dc:format>
<dc:type rdf:resource="http://purl.org/dc/dcmitype/StillImage"/>
</cc:Work>
</rdf:RDF>
</metadata>
<g stroke-linejoin="round" fill-rule="evenodd" transform="translate(-314.90647,-209.0076)" stroke="#00f" stroke-miterlimit="0">
<path style="color:#000000" d="m235.5312 230.5312v9.9688h10.0938v-3.9688c-0.1703 0.016-0.3256 0.0313-0.5 0.0313-3.0445 0-5.5313-2.4773-5.5313-5.5313 0-0.167 0.0168-0.3367 0.0313-0.5h-4.0938z" fill-opacity=".7" transform="translate(79.87527,-15.9917)" stroke-width="1.0000002" fill="#99b6d4"/>
<circle style="color:#000000" stroke-width=".8193182" fill-opacity=".7019608" transform="matrix(1.103062,0,0,1.10649,-36.96118,-22.90202)" cy="215" cx="328" r="5" fill="#99b7d5"/>
</g>
</svg>
