<?xml version="1.0" encoding="UTF-8" standalone="no"?>
<svg xmlns:rdf="http://www.w3.org/1999/02/22-rdf-syntax-ns#" xmlns="http://www.w3.org/2000/svg" version="1.1" xmlns:cc="http://creativecommons.org/ns#" viewBox="0 0 16.5 16.501141" xmlns:dc="http://purl.org/dc/elements/1.1/">
<metadata>
<rdf:RDF>
<cc:Work rdf:about="">
<dc:format>image/svg+xml</dc:format>
<dc:type rdf:resource="http://purl.org/dc/dcmitype/StillImage"/>
</cc:Work>
</rdf:RDF>
</metadata>
<g transform="translate(-655.5,-29.5)" fill="none">
<rect style="color:#000000" height="16" width="16" y="30.00057" x="656" stroke-width=".1"/>
<rect style="color:#000000" height="16" width="16" y="30.00114" x="656" stroke-width=".1"/>
<path style="color:#000000" d="m669 30v13h-13" stroke-dashoffset="2.5" stroke="#008000" stroke-linecap="square" stroke-dasharray="1, 2"/>
</g>
</svg>
